Homicidos en “” | DataLab.knit
…
Homicidos en “”

ts <- read_csv("ejercicio_3.csv")
ts$Clave_Ent <- as.factor(ts$Clave_Ent)

ts_21 <- ts %>% filter(Clave_Ent == 21)

ts_21

## # A tibble: 93 × 3
##    fecha    `Homicidio_Homicidio-doloso` Clave_Ent
##    <chr>                           <dbl> <fct>    
##  1 31/01/17                           51 21       
##  2 28/02/17                           55 21       
##  3 31/03/17                           72 21       
##  4 30/04/17                           68 21       
##  5 31/05/17                           81 21       
##  6 30/06/17                           65 21       
##  7 31/07/17                           94 21       
##  8 31/08/17                           72 21       
##  9 30/09/17                           86 21       
## 10 31/10/17                           84 21       
## # ℹ 83 more rows
…
